<?xml version="1.0" encoding="UTF-8"?>
<svg xmlns="http://www.w3.org/2000/svg" width="98" height="20">
    <linearGradient id="b" x2="0" y2="100%">
        <stop offset="0" stop-color="#bbb" stop-opacity=".1"/>
        <stop offset="1" stop-opacity=".1"/>
    </linearGradient>
    <mask id="anybadge_1">
        <rect width="98" height="20" rx="3" fill="#fff"/>
    </mask>
    <g mask="url(#anybadge_1)">
        <path fill="#555" d="M0 0h31v20H0z"/>
        <path fill="#28e000" d="M31 0h67v20H31z"/>
        <path fill="url(#b)" d="M0 0h98v20H0z"/>
    </g>
    <g fill="#fff" text-anchor="middle" font-family="DejaVu Sans,Verdana,Geneva,sans-serif" font-size="11">
        <text x="16.5" y="15" fill="#010101" fill-opacity=".3">RBB</text>
        <text x="15.5" y="14">RBB</text>
    </g>
    <g fill="#fff" text-anchor="middle" font-family="DejaVu Sans,Verdana,Geneva,sans-serif" font-size="11">
        <text x="65.5" y="15" fill="#010101" fill-opacity=".3">91.0272%</text>
        <text x="64.5" y="14">91.0272%</text>
    </g>
</svg>